{
  "$schema": "https://raw.githubusercontent.com/AArnott/Nerdbank.GitVersioning/master/src/NerdBank.GitVersioning/version.schema.json",
  "version": "22.0", 
      "publicReleaseRefSpec": [
        "^refs/heads/master$",
        "^master$"
    ],
  "cloudBuild": {
    "buildNumber": {
      "enabled": true
    }
  }
}